%YAML 1.1
%TAG !u! tag:unity3d.com,2011:
--- !u!1045 &1
EditorBuildSettings:
  m_ObjectHideFlags: 0
  serializedVersion: 2
  m_Scenes:
  - enabled: 1
    path: Assets/Game/Scenes/GameManager.unity
    guid: 1f6b3809b99cceb4695f04ca30ae51ae
  - enabled: 1
    path: Assets/Game/Scenes/Gameplay.unity
    guid: 281b44281966f824e97d9a3c908e459e
  - enabled: 1
    path: Assets/Game/Scenes/Home.unity
    guid: 3b8d82602128c0348a351ff75bbaaaf9
  - enabled: 1
    path: Assets/Game/Scenes/Rate.unity
    guid: c618dc2b6651c824ebc9b88279ea537b
  - enabled: 1
    path: Assets/Game/Scenes/Exit.unity
    guid: bc3a57267f28fb145a0e240d2b8a5674
  - enabled: 1
    path: Assets/Game/Scenes/Complete.unity
    guid: bb644799d71cda248ac51a1bcf9b4bfd
  - enabled: 1
    path: Assets/Game/Scenes/GlobalUI.unity
    guid: 697bc6706bad1f14a89b97339b6073ef
  - enabled: 1
    path: Assets/Game/Scenes/Fail.unity
    guid: 36d63daa8c29445438fbd508f7ed75e9
  - enabled: 1
    path: Assets/Game/Scenes/Shop.unity
    guid: eefd811f4c873e24ab3c38c5cdddbeaf
  - enabled: 1
    path: Assets/Game/Scenes/Settings.unity
    guid: b69bdde21d9bffb44ba0e0ac36081ca5
  - enabled: 1
    path: Assets/Game/Scenes/LevelSelect.unity
    guid: 99c4459c486953b4697e53499dbb8a28
  m_configObjects: {}
